<?xml version="1.0" encoding="UTF-8"?>
<!DOCTYPE svg PUBLIC "-//W3C//DTD SVG 1.1//EN" "http://www.w3.org/Graphics/SVG/1.1/DTD/svg11.dtd">
<!-- Creator: CorelDRAW 2019 (64-Bit Versión de evaluación) -->
<svg xmlns="http://www.w3.org/2000/svg" xml:space="preserve" width="215.9mm" height="279.4mm" version="1.1" style="shape-rendering:geometricPrecision; text-rendering:geometricPrecision; image-rendering:optimizeQuality; fill-rule:evenodd; clip-rule:evenodd"
viewBox="0 0 21590 27940"
 xmlns:xlink="http://www.w3.org/1999/xlink">
 <defs>
  <style type="text/css">
   <![CDATA[
    .fil0 {fill:#0D0D0D}
    .fil2 {fill:#CDFF00}
    .fil1 {fill:white}
   ]]>
  </style>
 </defs>
 <g id="Capa_x0020_1">
  <metadata id="CorelCorpID_0Corel-Layer"/>
  <circle class="fil0" cx="12655.45" cy="12154.12" r="12485.73"/>
  <path class="fil1" d="M11992.09 5236.47c-95.57,-47.28 -256.15,-204.63 -322.92,-271.91 -337.53,-340.01 -569.86,-506.78 -1050.49,-730.23 -1237.45,-575.29 -2670.17,-549.26 -3901.79,46.4 -384.06,185.74 -1248.32,746.21 -1385.13,1006.91 68.2,109.09 227.03,233.44 322.78,347.12 249.13,295.78 730.73,775.48 1023.92,992.78 494.39,366.46 1117.45,694.37 1896,785.84 2344.25,94.43 6297.09,-639.71 1728.79,357.39 -1333.11,207.98 -1103.67,1383.15 -1225.33,2061.79 -86.04,479.96 -273.95,821.22 -490.39,1153.73 -215.78,331.52 -417.88,676.63 -628.31,1015.78 -208.24,335.57 -420.13,684.38 -617.75,1026.82 -205.41,355.95 -404.4,682.13 -587.66,1076.87 -1844.95,3973.72 1180.02,6842.62 4616.74,7444.71 2679.14,469.37 5731.74,-152.58 7454.89,-2127.96 1274.56,-1461.14 1454.28,-3194.94 730.18,-5019.36 -284.84,-717.7 -1314.01,-2398.46 -1791.52,-3141.37 -423.89,-659.45 -628.91,-948.24 -707.75,-1762.87 -22.99,-237.59 -17.28,-523.66 -68.86,-750.87 -57.62,-253.7 -143.75,-388.31 -272.51,-548.27 -58.13,-72.25 -132.17,-133.64 -218.57,-192.9 -88.88,-60.97 -208.45,-101.69 -274.13,-154.71 79.6,-176.28 142.89,-316.05 -25.14,-485.53 -129.32,-130.41 -335.47,-114.45 -555.77,-133.9 -349.49,-30.84 -927.69,-45.8 -1242.91,-116.63 412.1,-24.78 818.95,-46.96 1231.32,-71.44 212,-12.58 372.89,-50.85 430.39,-214.62 81.87,-233.18 -44.6,-342.89 -234.71,-384.1 -228.74,-49.59 -311.13,-17.96 -540.15,-105.64 -162.87,-62.36 -306.43,-116.6 -466.45,-179.45 -162.92,-63.97 -854.31,-313.34 -941.41,-369.5 189.09,-48.1 339.62,-55.73 530.79,-123.66 157.41,-55.93 327.66,-132.6 455.5,-210.08 417.23,-252.84 757.95,-581.42 1029.81,-986.75 276.12,-411.63 518.23,-932.22 571.67,-1456.99 -752.41,-330.99 -1734.6,-724.31 -3023.77,18.47 -1302.66,750.56 -1173.75,1920.45 -1449.36,2204.13z"/>
  <path class="fil2" d="M9779.71 10417.36c-158.69,612.86 -697.61,1266.26 -1069.52,1904.97 -673.19,1156.11 -1762.5,2543.3 -1592.56,4338.36 88.37,933.44 493.28,1630.19 1068.41,2280.14 148.77,168.12 405.93,383.34 588.82,526.69 1535.67,1203.49 3939.04,1583.98 5972.69,1165.32 3242.34,-667.48 5573.79,-3331.94 3590.71,-6852.78 -330.46,-586.71 -1017.73,-1750.45 -1407.79,-2311.59 -373.46,-537.23 -568.98,-847.92 -645.1,-1586.94 -209.11,-2030.62 -5752.13,-2374.76 -6505.66,535.83z"/>
  <path class="fil2" d="M6433.67 5405.1c119.51,183.84 728.56,667.31 963.32,797.21 1150.12,636.33 2765.84,622.83 3819.64,-123.93l238.18 -196.03c-572.87,-719.82 -1306.66,-1159.51 -2282.74,-1280.13 -559.29,-69.14 -1088.57,-7.75 -1591.36,150.17 -381.83,119.94 -1024.66,386.25 -1147.04,652.71z"/>
  <path class="fil2" d="M12855.96 4953.92c484.31,325.18 1382.52,66.14 1864.08,-234.76 439,-274.3 992.81,-837.99 1021.65,-1366.46 -382.64,-125.72 -558.04,-174.54 -1002.24,-91.14 -320.5,60.19 -605.68,187.25 -844.77,337.37 -253.92,159.43 -464.86,336 -635.21,548.01 -120.67,150.16 -396.37,539.81 -403.51,806.98z"/>
  <path class="fil2" d="M11640.89 6657.99c3.42,1.81 7.17,7.33 39.51,11.33l1100.32 -65.55c364.4,-22.52 824.06,-26.24 1176.74,-76.46 -115.08,1.18 -963.07,-384.95 -1216.72,-440.45 -300.42,-65.71 -424.21,98.27 -595.06,215.82 -151.88,104.51 -392.67,231.36 -504.79,355.31z"/>
 </g>
</svg>
